%YAML 1.1
%TAG !u! tag:unity3d.com,2011:
--- !u!162 &1
EditorUserSettings:
  m_ObjectHideFlags: 0
  serializedVersion: 4
  m_ConfigSettings:
    RecentlyUsedSceneGuid-0:
      value: 5a09555e5202080d0f5b582111720d4412154b282e7e23607e714c66e4b8373b
      flags: 0
    RecentlyUsedSceneGuid-1:
      value: 5407015351050d0e5a58082316740944454e40722a2a766274284a36b1b0633b
      flags: 0
    RecentlyUsedSceneGuid-2:
      value: 560500030150580c5f5e5b7116220b44174f497c2d2e24317a7c1964b3e1373d
      flags: 0
    RecentlyUsedSceneGuid-3:
      value: 5a0056040100500b0f5f092649710b4444154b29757871347c7f4c31b3b7636a
      flags: 0
    RecentlyUsedSceneGuid-4:
      value: 02540d5506505c595b5d5f7514720844144e1b28792c77677f2f4a37b7e3316f
      flags: 0
    vcSharedLogLevel:
      value: 0d5e400f0650
      flags: 0
  m_VCAutomaticAdd: 1
  m_VCDebugCom: 0
  m_VCDebugCmd: 0
  m_VCDebugOut: 0
  m_SemanticMergeMode: 2
  m_DesiredImportWorkerCount: 2
  m_StandbyImportWorkerCount: 2
  m_IdleImportWorkerShutdownDelay: 60000
  m_VCShowFailedCheckout: 1
  m_VCOverwriteFailedCheckoutAssets: 1
  m_VCProjectOverlayIcons: 1
  m_VCHierarchyOverlayIcons: 1
  m_VCOtherOverlayIcons: 1
  m_VCAllowAsyncUpdate: 1
  m_ArtifactGarbageCollection: 1
